{"items":[{"id":1,"product_id":1,"location_id":1,"proof_id":9880,"product":{"id":1,"code":"1541513213246","source":null,"source_last_synced":null,"product_name":null,"image_url":null,"product_quantity":null,"product_quantity_unit":null,"categories_tags":[],"brands":null,"brands_tags":[],"labels_tags":[],"nutriscore_grade":null,"ecoscore_grade":null,"nova_group":null,"unique_scans_n":0,"price_count":3,"price_currency_count":1,"location_count":1,"location_type_osm_country_count":1,"user_count":1,"proof_count":3,"created":"2023-11-27T11:37:14.015774Z","updated":null},"location":{"id":1,"type":"OSM","osm_id":1392117416,"osm_type":"NODE","osm_name":"L'Éléfàn","osm_display_name":"L'Éléfàn, 32, Avenue Marcelin Berthelot, Capuche, Secteur 4, Grenoble, Isère, Auvergne-Rhône-Alpes, France métropolitaine, 38100, France","osm_tag_key":"shop","osm_tag_value":"supermarket","osm_brand":null,"osm_address_postcode":"38100","osm_address_city":"Grenoble","osm_address_country":"France","osm_address_country_code":"FR","osm_lat":45.1750672,"osm_lon":5.7304083,"osm_version":20,"website_url":null,"price_count":3988,"user_count":4,"product_count":2129,"proof_count":78,"source":null,"created":"2023-11-27T11:37:14.059085Z","updated":"2024-09-02T17:25:19.151270Z"},"proof":{"id":9880,"location_id":1,"file_path":"0011/tWmES5a1ck.png","mimetype":"image/png","type":"SHOP_IMPORT","image_md5_hash":"3d1f8ce8e5c684fc8f1824d8ab2b55a2","image_thumb_path":"0011/tWmES5a1ck.400.png","location_osm_id":1392117416,"location_osm_type":"NODE","date":"2023-11-27","currency":"EUR","receipt_price_count":null,"receipt_price_total":null,"receipt_online_delivery_costs":null,"ready_for_price_tag_validation":false,"owner_consumption":null,"owner_comment":null,"price_count":997,"prediction_count":1,"owner":"elefan-grenoble","source":"API","tags":[],"created":"2024-10-03T14:57:12.341147Z","updated":"2024-10-03T14:57:12.345295Z"},"type":"PRODUCT","product_code":"1541513213246","product_name":null,"category_tag":null,"labels_tags":null,"origins_tags":null,"price":27.7,"price_is_discounted":false,"price_without_discount":null,"discount_type":null,"price_per":null,"currency":"EUR","location_osm_id":1392117416,"location_osm_type":"NODE","date":"2023-11-27","receipt_quantity":null,"owner_comment":null,"owner":"elefan-grenoble","source":null,"tags":[],"created":"2023-11-27T11:37:13.979801Z","updated":"2025-09-09T10:30:18.892451Z","duplicate_of":null},{"id":2,"product_id":2,"location_id":1,"proof_id":9880,"product":{"id":2,"code":"1541513213253","source":null,"source_last_synced":null,"product_name":null,"image_url":null,"product_quantity":null,"product_quantity_unit":null,"categories_tags":[],"brands":null,"brands_tags":[],"labels_tags":[],"nutriscore_grade":null,"ecoscore_grade":null,"nova_group":null,"unique_scans_n":0,"price_count":3,"price_currency_count":1,"location_count":1,"location_type_osm_country_count":1,"user_count":1,"proof_count":3,"created":"2023-11-27T11:37:15.357143Z","updated":null},"location":{"id":1,"type":"OSM","osm_id":1392117416,"osm_type":"NODE","osm_name":"L'Éléfàn","osm_display_name":"L'Éléfàn, 32, Avenue Marcelin Berthelot, Capuche, Secteur 4, Grenoble, Isère, Auvergne-Rhône-Alpes, France métropolitaine, 38100, France","osm_tag_key":"shop","osm_tag_value":"supermarket","osm_brand":null,"osm_address_postcode":"38100","osm_address_city":"Grenoble","osm_address_country":"France","osm_address_country_code":"FR","osm_lat":45.1750672,"osm_lon":5.7304083,"osm_version":20,"website_url":null,"price_count":3988,"user_count":4,"product_count":2129,"proof_count":78,"source":null,"created":"2023-11-27T11:37:14.059085Z","updated":"2024-09-02T17:25:19.151270Z"},"proof":{"id":9880,"location_id":1,"file_path":"0011/tWmES5a1ck.png","mimetype":"image/png","type":"SHOP_IMPORT","image_md5_hash":"3d1f8ce8e5c684fc8f1824d8ab2b55a2","image_thumb_path":"0011/tWmES5a1ck.400.png","location_osm_id":1392117416,"location_osm_type":"NODE","date":"2023-11-27","currency":"EUR","receipt_price_count":null,"receipt_price_total":null,"receipt_online_delivery_costs":null,"ready_for_price_tag_validation":false,"owner_consumption":null,"owner_comment":null,"price_count":997,"prediction_count":1,"owner":"elefan-grenoble","source":"API","tags":[],"created":"2024-10-03T14:57:12.341147Z","updated":"2024-10-03T14:57:12.345295Z"},"type":"PRODUCT","product_code":"1541513213253","product_name":null,"category_tag":null,"labels_tags":null,"origins_tags":null,"price":27.7,"price_is_discounted":false,"price_without_discount":null,"discount_type":null,"price_per":null,"currency":"EUR","location_osm_id":1392117416,"location_osm_type":"NODE","date":"2023-11-27","receipt_quantity":null,"owner_comment":null,"owner":"elefan-grenoble","source":null,"tags":[],"created":"2023-11-27T11:37:15.342832Z","updated":"2025-09-09T10:30:19.032534Z","duplicate_of":null}],"page":1,"pages":106270,"size":2,"total":212539}